…
A spec table can be computed by running the function, `compute_spec_table()` with default parameters:

``` r
compute_spec_table(expression_data = expression_data)
```

    ## # A tibble: 126 x 6
    ##    Cell_Type    spec binsize mean_expr median_expr Locus   
    ##    <chr>       <dbl>   <dbl>     <dbl>       <dbl> <chr>   
    ##  1 A          0.566    0.205     2.32       0.476  locus_1 
    ##  2 B         -0.0812   0.205     0.449      0.0921 locus_1 
    ##  3 C         -0.0812   0.205     0.323      0.0663 locus_1 
    ##  4 D         -0.0812   0.205     0.292      0.0599 locus_1 
    ##  5 E          0.687    0.205     2.49       0.512  locus_1 
    ##  6 F         -0.0812   0.205     0.498      0.102  locus_1 
    ##  7 G         -0.0812   0.205     0.142      0.0291 locus_1 
    ##  8 H         -0.0812   0.205     0.252      0.0517 locus_1 
    ##  9 I         -0.0812   0.205     0.111      0.0228 locus_1 
    ## 10 A          0        0.102     0.539      0.0551 locus_10
    ## # ... with 116 more rows
…
